…
#>  0.2  0.2  0.2  0.2  0.2  0.2  0.2  0.2 
#> 
#> [[3]]
#> 2019 2020 2021 2022 2023 2024 2025 2026 
#>  0.2  0.2  0.2  0.2  0.2  0.2  0.2  0.2
#> → Reading recruitment model #5
#> → Line 17 ...
#> Beverton-Holt Curve w/ Lognormal Error
#> • Alpha: 81.1
#> • Beta: 157.2
#> • Variance: 0.1521
#> → Reading recruitment model #3
#> → Line 18: Observed points : 71...
#> → Line 19 Observations ...
#> # A tibble: 71 × 1
#>    recruit
#>      <dbl>
#>  1    71.3
#>  2    65.4
#>  3    66.4
#>  4    62.8
#>  5    55.9
#>  6    53.4
#>  7    48.1
#>  8    47.6
#>  9    50.7
#> 10    48.4
#> # ℹ 61 more rows
#> → Reading recruitment model #3
#> → Line 20: Observed points : 18...
#> → Line 21 Observations ...
#> # A tibble: 18 × 1
#>    recruit
#>      <dbl>
#>  1    59.7
#>  2    65.9
#>  3    94.6
#>  4   142. 
#>  5   101. 
#>  6    81.5
#>  7    70.9
#>  8    73.8
#>  9    92.8
#> 10    91.5
#> # ℹ 8 more rows
…
